att1,att2,att3
87,13,82
57,41,52
48,43,44
21,91,21
72,41,43
16,95,76
59,45,46
31,33,67
51,36,36
65,49,60
23,85,29
99,8,91
50,36,58
55,77,33
60,55,37
25,69,78
85,29,23
47,41,66
91,1,99
100,6,90
27,58,58
11,85,79
60,48,65
43,60,49
7,95,0
81,19,23
100,0,100
73,23,69
24,73,39
47,46,48
38,51,49
1,92,86
64,24,32
32,64,60
54,36,59
77,87,25
84,27,27
66,29,78
65,32,65
78,32,75
42,48,65
5,8,91
100,1,100
41,46,66
23,81,88
88,24,7
35,79,54
45,49,64
68,65,41
90,20,16
32,69,62
3,95,100
8,0,91
0,92,19
20,82,31
60,62,38
69,42,37
68,63,31
