att1,att2,att3,att4,att5,att6,att7
94,0,19,2,7,8,14
94,86,80,83,73,21,76
69,73,30,79,62,63,67
14,98,0,5,0,9,0
78,59,70,55,62,37,69
94,100,3,93,100,100,98
68,72,92,72,23,87,90
70,78,83,62,74,23,72
22,73,37,26,32,19,40
100,100,95,97,11,96,88
55,31,59,76,64,60,71
83,82,85,30,66,77,64
100,91,11,100,100,83,78
68,76,65,23,67,87,92
69,80,54,56,32,77,77
50,63,50,41,53,49,64
73,42,34,12,34,16,17
15,0,0,0,7,11,96
5,19,17,22,87,12,6
68,20,86,81,94,88,72
70,61,61,41,66,65,64
16,38,17,30,34,77,37
83,81,72,85,72,21,94
