att1,att2,att3
74,49,40
16,81,86
100,1,100
43,59,70
84,11,88
100,4,100
64,44,33
51,55,43
30,51,63
64,79,32
69,25,86
40,46,58
69,88,23
22,6,93
40,53,59
20,1,92
11,80,34
36,61,77
75,34,71
