att1,att2,att3,att4,att5
71,93,17,100,70
38,48,11,2,85
38,95,70,75,52
49,11,87,44,86
30,86,31,87,42
20,36,54,34,37
42,91,84,85,28
61,40,50,44,36
40,4,93,91,31
69,99,76,42,7
45,79,41,23,20
14,70,10,71,30
93,24,75,96,77
61,48,11,15,85
91,17,40,29,45
2,5,90,86,36
40,92,77,1,25
67,76,3,91,14
4,71,95,4,96
67,55,78,58,34
100,46,37,44,18
19,9,88,38,62
18,64,37,17,63
