att1,att2,att3
76,97,94
35,22,69
71,18,61
49,82,60
62,4,40
96,87,21
97,46,76
71,41,91
2,15,83
19,72,72
85,97,40
17,31,4
69,80,95
58,36,41
45,83,10
93,84,3
95,68,62
54,43,70
42,72,15
7,54,6
0,69,95
1,95,90
83,68,39
79,80,8
19,87,2
49,78,11
29,22,18
88,7,26
28,17,82
96,31,65
76,92,4
93,48,41
79,14,67
35,33,96
77,27,30
87,19,24
58,6,49
43,66,17
68,40,59
39,5,75
13,55,80
99,75,23
97,89,66
19,40,68
95,88,39
48,85,33
4,92,79
26,98,63
36,94,38
14,44,84
48,38,78
25,46,31
18,45,67
59,5,51
19,85,14
44,62,13
91,65,37
68,52,3
