2018-06-28__20:40:05,2018-06-28__20:40:31,offered algo ver3,anticorrelated,2,23,33649,200,5,max,0:00:25.717000,24.584192
2018-06-28__20:57:27,2018-06-28__20:57:30,offered algo ver3,anticorrelated,2,23,1771,200,3,min,0:00:02.372000,12.689408
2018-06-28__21:01:10,2018-06-28__21:01:12,offered algo ver3,anticorrelated,2,23,1771,200,3,min,0:00:02.261000,12.685312
2018-06-28__21:01:52,2018-06-28__21:01:55,offered algo ver3,anticorrelated,2,23,1771,200,3,min,0:00:02.373000,12.693504
2018-06-28__21:08:58,2018-06-28__21:09:00,offered algo ver3,anticorrelated,2,23,1771,200,3,min,0:00:02.721000,12.6976
2018-06-28__21:10:18,2018-06-28__21:10:20,offered algo ver3,anticorrelated,2,23,1771,200,3,min,0:00:02.471000,12.709888
2018-06-28__21:13:17,2018-06-28__21:13:18,offered algo ver3,anticorrelated,2,23,1771,200,3,max,0:00:01.706000,12.77952
2018-06-28__21:16:00,2018-06-28__21:16:02,offered algo ver3,anticorrelated,2,23,1771,200,3,min,0:00:02.285000,12.709888
2018-06-28__21:18:55,2018-06-28__21:18:57,offered algo ver3,anticorrelated,2,23,1771,200,3,min,0:00:02.214000,12.6976
2018-06-28__21:20:16,2018-06-28__21:20:18,offered algo ver3,anticorrelated,2,23,1771,200,3,min,0:00:02.215000,12.6976
2018-06-28__21:20:38,2018-06-28__21:20:40,offered algo ver3,anticorrelated,2,23,1771,200,3,min,0:00:02.212000,12.701696
2018-06-28__21:24:12,2018-06-28__21:24:14,offered algo ver3,anticorrelated,2,23,1771,200,3,min,0:00:02.223000,12.689408
2018-06-28__21:24:31,2018-06-28__21:24:33,offered algo ver3,anticorrelated,2,23,1771,200,3,min,0:00:02.281000,12.689408
2018-06-28__21:28:44,2018-06-28__21:28:46,offered algo ver3,anticorrelated,2,23,1771,200,3,min,0:00:02.224000,12.6976
2018-06-28__21:29:13,2018-06-28__21:29:16,offered algo ver3,anticorrelated,2,23,1771,200,3,min,0:00:02.247000,12.689408
2018-06-28__21:37:37,2018-06-28__21:37:39,offered algo ver3,anticorrelated,2,23,1771,200,3,min,0:00:02.217000,12.6976
2018-06-28__21:39:17,2018-06-28__21:39:19,offered algo ver3,anticorrelated,2,23,1771,200,3,min,0:00:02.215000,12.681216
2018-06-28__21:39:55,2018-06-28__21:39:57,offered algo ver3,anticorrelated,2,23,1771,200,3,min,0:00:02.223000,12.685312
2018-06-28__21:41:03,2018-06-28__21:41:05,offered algo ver3,anticorrelated,2,23,1771,200,3,min,0:00:02.191000,12.67712
2018-06-28__21:41:09,2018-06-28__21:41:11,offered algo ver3,anticorrelated,2,23,1771,200,3,min,0:00:02.200000,12.6976
2018-06-28__21:46:34,2018-06-28__21:46:36,offered algo ver3,anticorrelated,2,23,1771,200,3,min,0:00:02.384000,12.681216
2018-06-28__21:47:39,2018-06-28__21:47:41,offered algo ver3,anticorrelated,2,23,1771,200,3,min,0:00:02.368000,13.275136
2018-06-28__21:47:53,2018-06-28__21:47:55,offered algo ver3,anticorrelated,2,23,1771,200,3,max,0:00:01.698000,12.763136
2018-06-28__21:48:56,2018-06-28__21:48:58,offered algo ver3,anticorrelated,2,23,1771,200,3,max,0:00:01.690000,12.750848
2018-06-28__21:49:52,2018-06-28__21:49:55,offered algo ver3,anticorrelated,2,23,1771,200,3,min,0:00:02.430000,12.693504
2018-06-28__21:50:07,2018-06-28__21:50:09,offered algo ver3,anticorrelated,2,23,1771,200,3,max,0:00:01.774000,12.750848
2018-06-28__22:08:24,2018-06-28__22:08:26,offered algo ver3,anticorrelated,2,23,1771,200,3,max,0:00:01.616000,12.804096
2018-06-28__22:08:42,2018-06-28__22:08:52,offered algo ver3,anticorrelated,3,18,816,200,3,max,0:00:10.566000,14.815232
2018-06-30__10:06:29,2018-06-30__10:06:31,offered algo ver3,anticorrelated,2,23,1771,200,3,min,0:00:02.708000,12.6976
2018-06-30__10:05:57,2018-06-30__10:06:41,offered algo ver3,anticorrelated,2,23,33649,200,5,max,0:00:44.593000,24.559616
2018-06-30__10:06:47,2018-06-30__10:16:35,offered algo ver3,anticorrelated,2,23,33649,200,5,min,0:09:48.268000,24.809472
2018-06-30__15:04:47,2018-06-30__15:04:48,offered algo ver3,anticorrelated,2,23,1771,200,3,max,0:00:01.703000,12.808192
2018-07-01__12:39:46,2018-07-01__12:39:47,offered algo ver3,anticorrelated,2,23,1771,200,3,max,0:00:01.795000,12.8
