att1,att2,att3,att4,att5
35,66,64,55,70
34,26,22,74,13
88,91,4,100,88
91,9,1,5,10
88,7,0,0,0
4,0,2,20,94
7,18,20,8,90
0,94,9,21,9
49,32,46,53,34
45,33,23,69,19
90,17,92,95,95
40,49,44,33,54
33,17,18,16,82
32,53,78,76,83
59,64,80,33,62
56,58,51,36,77
78,15,14,20,37
33,11,11,76,29
41,58,49,47,58
31,60,43,28,49
51,44,62,53,64
39,29,38,30,63
63,45,60,48,39
