att1,att2,att3
70,22,93
74,85,26
55,33,58
36,74,15
40,72,74
94,5,0
89,16,10
6,95,86
5,94,87
78,97,17
35,43,62
74,65,22
77,19,22
67,42,64
70,21,73
60,69,25
57,36,49
25,79,14
53,32,62
36,76,75
23,81,91
61,25,76
94,11,87
26,89,10
67,78,28
67,18,22
8,89,23
7,93,88
14,23,91
