att1,att2,att3,att4,att5,att6,att7
25,19,9,65,11,8,32
24,21,4,51,6,6,30
79,53,36,68,60,60,60
74,59,77,60,100,58,69
25,17,4,33,10,6,30
21,50,22,78,0,0,52
28,17,27,69,15,10,34
28,18,13,58,16,9,34
31,17,36,60,53,11,36
29,22,40,62,19,10,47
29,77,13,41,49,12,26
100,58,45,100,30,100,60
63,51,95,32,63,60,91
29,82,27,32,45,13,15
2,60,13,7,14,11,39
0,19,27,0,12,13,39
29,100,0,23,10,10,21
5,27,27,13,15,10,47
2,0,13,16,15,12,17
2,14,18,13,18,12,30
1,27,36,5,17,13,52
98,80,72,52,33,94,0
69,44,100,45,72,63,100
