att1,att2,att3,att4,att5,att6,att7,att8,att9,att10
25,19,9,65,11,8,32,52,71,100
24,21,4,51,6,6,30,59,74,97
79,53,36,68,60,60,60,65,59,92
74,59,77,60,100,58,69,65,47,96
25,17,4,33,10,6,30,56,73,95
21,50,22,78,0,0,52,63,63,88
28,17,27,69,15,10,34,36,62,98
28,18,13,58,16,9,34,47,67,97
31,17,36,60,53,11,36,27,57,98
29,22,40,62,19,10,47,22,49,97
29,77,13,41,49,12,26,77,83,97
100,58,45,100,30,100,60,70,60,0
63,51,95,32,63,60,91,34,19,91
29,82,27,32,45,13,15,86,91,96
2,60,13,7,14,11,39,70,74,69
0,19,27,0,12,13,39,36,61,68
29,100,0,23,10,10,21,68,83,91
5,27,27,13,15,10,47,40,57,69
2,0,13,16,15,12,17,52,78,68
2,14,18,13,18,12,30,43,67,67
1,27,36,5,17,13,52,31,50,67
98,80,72,52,33,94,0,100,100,12
69,44,100,45,72,63,100,0,0,86
