att1,att2,att3
25,7,5
5,39,38
93,79,5
27,85,10
78,41,65
84,97,94
18,50,50
53,98,64
66,28,75
93,46,84
76,74,66
0,46,45
29,18,100
39,44,33
96,100,33
31,78,4
65,74,37
20,5,6
63,30,25
