att1,att2,att3
22,53,90
82,50,31
47,76,100
35,65,35
78,78,55
86,70,92
46,90,76
38,55,76
96,17,71
7,80,59
15,19,89
70,10,2
31,22,52
41,7,87
72,41,18
44,26,13
94,13,51
36,51,71
87,33,12
87,87,87
26,30,2
87,74,74
21,53,15
87,86,33
60,67,32
89,49,98
71,4,54
21,32,94
2,8,42
