att1,att2,att3,att4,att5
24,68,23,12,49
27,9,30,71,51
8,24,24,99,51
85,77,32,40,85
100,52,51,20,57
89,68,58,62,11
19,69,45,85,62
43,61,28,76,22
43,94,98,49,72
31,79,15,89,86
32,94,97,24,35
2,69,33,42,63
0,25,48,78,47
1,45,47,6,9
52,44,69,87,68
92,74,40,13,41
27,32,46,67,64
83,47,72,66,77
95,53,35,69,76
76,2,42,19,78
42,96,40,16,73
45,61,39,91,28
21,25,85,6,14
