att1,att2,att3
19,3,52
25,36,20
4,14,25
47,6,33
82,85,85
12,35,28
48,95,22
19,77,15
91,14,3
34,64,42
51,83,96
46,45,6
2,4,65
5,96,12
19,20,79
63,82,46
97,77,4
47,48,39
72,70,57
85,96,10
85,42,74
27,96,43
44,68,73
4,43,68
41,98,83
54,16,43
66,46,10
25,13,24
73,49,76
53,5,71
78,70,100
61,86,86
