att1,att2,att3,att4,att5,att6,att7,att8,att9,att10
55,46,45,99,21,3,99,43,52,37
42,34,97,26,79,90,13,61,12,78
54,36,17,48,88,0,57,19,11,28
69,6,11,50,17,68,48,77,94,1
68,14,59,35,41,34,56,24,100,84
99,28,87,95,82,69,25,64,71,72
35,99,79,15,96,33,58,97,46,9
81,94,4,17,30,6,68,92,86,10
61,50,100,92,1,5,90,85,18,83
49,34,69,62,68,80,63,92,41,94
95,50,74,90,78,97,45,31,68,36
72,37,47,78,34,59,39,67,26,30
48,71,80,14,91,82,59,32,20,40
42,67,92,8,54,56,97,27,22,88
61,5,59,17,58,27,27,39,86,2
36,96,67,29,68,15,14,21,28,52
45,86,33,24,9,93,2,79,54,93
48,3,79,0,71,37,82,77,68,91
91,16,52,42,73,32,40,26,61,16
48,85,11,24,48,39,5,92,71,5
27,82,8,84,46,6,71,34,7,28
78,48,30,30,28,60,45,63,57,55
37,60,19,79,77,76,49,21,100,33
