time_start,time_end,algorithm,data_type,dimension,n_size,combination_size,k,group_size,aggregate_func,runtime,mem_usage
2018-06-27__05:09:03,2018-06-27__05:10:29,offered algo ver2,anticorrelated,2,23,33649,200,5,max,0:01:26.055323,48.943104
2018-06-27__05:10:29,2018-06-27__05:14:42,offered algo ver2,anticorrelated,3,23,33649,200,5,max,0:04:12.848493,50.413568
2018-06-27__05:22:58,2018-06-27__05:54:51,offered algo ver2,anticorrelated,2,23,33649,200,5,sum,0:31:52.992755,50.184192
2018-06-27__05:22:11,2018-06-27__06:08:28,offered algo ver2,anticorrelated,2,23,33649,200,5,min,0:46:17.015514,49.721344
2018-06-27__05:54:52,2018-06-27__06:19:29,offered algo ver2,anticorrelated,3,23,33649,200,5,sum,0:24:37.934145,53.874688
2018-06-27__06:08:28,2018-06-27__06:57:03,offered algo ver2,anticorrelated,3,23,33649,200,5,min,0:48:35.576343,50.106368
2018-06-27__06:57:03,2018-06-27__07:57:25,offered algo ver2,anticorrelated,5,23,33649,200,5,min,1:00:21.094953,70.852608
2018-06-27__07:57:25,2018-06-27__13:08:51,offered algo ver2,anticorrelated,7,23,33649,200,5,min,5:11:26.859175,1108.54144
2018-06-27__13:12:32,2018-06-27__13:21:23,offered algo ver2,anticorrelated,3,19,11628,200,5,min,0:08:50.540790,25.526272
2018-06-27__13:21:23,2018-06-27__14:17:06,offered algo ver2,anticorrelated,3,23,33649,200,5,min,0:55:43.059392,50.159616
2018-06-27__14:17:06,2018-06-27__17:03:17,offered algo ver2,anticorrelated,3,25,53130,200,5,min,2:46:10.680625,71.72096
2018-06-27__17:03:17,2018-06-28__04:18:41,offered algo ver2,anticorrelated,3,29,118755,200,5,min,11:15:23.751884,144.564224
2018-06-28__04:37:45,2018-06-28__04:40:38,offered algo ver2,anticorrelated,3,19,11628,200,5,max,0:02:53.341790,26.488832
2018-06-28__04:43:25,2018-06-28__04:47:45,brute force,anticorrelated,3,19,11628,200,5,max,0:04:19.824293,16.93696
2018-06-26__17:57:25,2018-06-26__17:58:38,offered algo ver2,independent,3,18,8568,200,5,max,0:01:13.708000,18.300928
2018-06-26__18:01:08,2018-06-26__18:02:20,offered algo ver2,anticorrelated,2,23,33649,200,5,max,0:01:12.627000,31.952896
2018-06-26__18:03:48,2018-06-26__18:03:48,offered algo ver2,anticorrelated,2,23,253,50,2,max,0:00:00.236000,12.378112
2018-06-26__18:05:04,2018-06-26__18:17:26,offered algo ver2,anticorrelated,3,58,30856,200,3,max,0:12:21.261000,33.366016
2018-06-26__18:23:20,2018-06-26__18:24:17,offered algo ver2,anticorrelated,2,23,33649,200,5,max,0:00:56.456000,32.124928
2018-06-28__12:44:47,2018-06-28__12:46:46,offered algo ver2,anticorrelated,3,19,11628,200,5,max,0:01:58.912000,20.72576
2018-06-29__12:03:19,2018-06-29__12:03:20,offered algo ver2,anticorrelated,2,23,253,50,2,max,0:00:00.398935,13.213696
