att1,att2,att3
8,27,97
27,4,8
100,98,40
52,19,47
50,38,30
18,87,26
17,61,75
14,40,65
19,71,78
58,86,79
35,47,40
3,32,36
94,69,76
23,9,21
50,52,14
36,33,36
75,26,77
86,30,91
12,15,12
21,35,92
26,59,48
78,90,7
54,67,63
