att1,att2,att3
25,19,9
24,21,4
79,53,36
74,59,77
25,17,4
21,50,22
28,17,27
28,18,13
31,17,36
29,22,40
29,77,13
100,58,45
63,51,95
29,82,27
2,60,13
0,19,27
29,100,0
5,27,27
2,0,13
2,14,18
1,27,36
98,80,72
69,44,100
4,20,31
3,8,36
