att1,att2,att3
1,92,20
99,16,72
55,59,50
67,22,90
41,46,65
61,39,48
62,64,32
14,8,83
96,5,100
71,42,28
93,20,94
19,88,68
42,63,38
76,27,30
0,100,88
29,83,18
49,47,64
39,74,74
16,6,94
41,64,36
92,23,11
40,46,42
45,24,69
74,57,35
51,51,44
87,13,10
25,32,82
48,47,46
71,30,64
