att1,att2,att3,att4,att5,att6,att7
59,59,38,63,47,51,62
89,95,91,100,100,4,100
13,0,4,97,0,15,0
27,19,30,12,76,34,13
48,55,48,46,38,66,56
36,74,66,57,67,61,51
42,28,63,45,40,34,43
84,91,86,87,22,75,90
100,100,4,99,91,89,90
46,62,49,41,31,36,41
