att1,att2,att3
37,79,14
43,32,48
47,17,54
58,9,33
5,21,64
71,19,34
51,57,24
94,64,66
44,32,88
29,53,11
16,6,2
36,53,89
17,94,93
34,50,48
48,69,93
49,11,29
27,99,84
52,30,95
9,90,97
42,55,25
95,70,39
5,23,33
19,40,38
98,16,16
36,64,3
59,51,49
69,8,66
79,88,59
32,60,9
