att1,att2,att3,att4,att5,att6,att7
76,80,31,28,73,90,13
72,60,29,79,43,56,1
57,32,16,0,38,56,100
25,78,93,20,69,35,73
80,82,43,54,79,72,50
35,81,10,34,15,13,67
45,31,26,43,6,25,62
98,43,29,86,50,6,27
36,52,34,1,3,9,14
87,76,4,95,0,84,40
86,98,47,100,74,74,86
10,44,42,35,37,38,54
84,77,6,45,1,57,54
52,68,74,13,29,66,96
88,14,58,35,7,65,59
83,74,83,12,54,80,88
7,30,66,86,82,65,64
46,8,30,84,66,24,100
32,24,44,4,10,98,53
11,33,91,74,6,93,0
44,93,72,71,81,40,60
59,21,5,26,96,14,9
44,3,40,44,62,2,96
