att1,att2,att3
22,19,6
21,21,3
66,53,27
62,59,58
22,17,3
19,50,17
24,17,20
24,18,10
27,17,27
26,22,31
26,77,10
83,58,34
53,51,72
25,82,20
2,60,10
1,19,20
25,100,0
5,27,20
3,0,10
2,14,13
2,27,27
82,80,55
58,44,75
4,20,24
3,8,27
0,52,17
0,62,31
100,57,51
68,52,0
52,45,79
45,47,100
6,40,20
