att1,att2,att3,att4,att5,att6,att7,att8,att9,att10
44,41,51,32,47,39,49,29,62,50
0,20,4,0,0,16,17,21,93,18
34,13,14,76,37,21,38,23,20,33
32,18,24,32,25,22,74,15,36,11
73,78,53,81,68,67,32,81,81,74
3,13,17,0,25,12,15,0,25,90
22,22,20,30,25,13,22,74,33,19
1,0,10,97,13,0,0,7,11,5
95,1,8,5,0,0,2,4,19,0
81,74,82,78,63,67,29,58,76,77
24,33,33,30,26,26,40,24,64,22
19,27,14,16,34,25,81,18,17,30
100,86,92,94,89,100,100,100,90,8
35,32,56,52,48,35,56,57,52,49
17,16,24,13,28,83,29,6,18,3
79,88,98,89,10,98,84,100,100,83
17,26,33,31,25,15,24,27,20,80
68,87,74,87,86,88,84,26,76,66
9,18,22,78,36,36,15,11,13,8
84,85,61,86,56,63,65,29,73,58
21,42,33,46,38,26,20,68,21,36
41,60,71,59,55,64,62,52,57,53
54,45,58,52,59,61,33,43,35,56
