att1,att2,att3,att4,att5
56,57,42,48,33
60,36,35,51,56
100,85,12,84,96
90,12,7,15,6
28,28,21,69,28
99,14,88,98,83
61,55,34,81,58
53,43,44,47,45
37,61,44,29,41
36,17,25,34,79
91,86,98,100,9
32,40,36,74,38
99,0,98,100,88
39,47,52,48,58
67,28,64,72,70
15,0,99,15,0
86,87,28,71,71
46,22,27,65,32
89,100,95,100,6
23,73,20,29,31
22,72,64,79,87
66,78,80,85,25
35,74,76,60,72
