att1,att2,att3
46,58,51
64,46,29
12,88,95
55,36,55
54,35,68
44,55,59
43,48,57
46,50,67
53,53,46
94,8,85
20,25,65
18,25,77
21,86,88
0,85,17
23,17,75
78,71,26
76,34,31
46,49,53
2,91,15
42,44,61
53,56,42
63,28,70
82,22,5
