att1,att2,att3
100,0,13
50,22,65
20,94,7
75,17,10
78,55,35
6,10,96
95,0,0
62,49,40
17,72,18
35,75,73
68,20,40
61,53,51
49,40,56
26,69,61
16,98,0
26,64,23
14,85,100
96,99,2
29,82,7
77,77,17
70,40,69
1,0,91
92,16,97
53,57,53
45,68,54
