att1,att2,att3
23,14,6
21,15,3
66,39,27
62,43,58
22,12,3
19,37,17
25,12,20
25,13,10
27,12,27
26,16,31
26,56,10
84,42,34
53,37,72
25,60,20
3,44,10
1,14,20
26,73,0
6,20,20
3,0,10
3,10,13
3,20,27
82,59,55
59,32,75
5,15,24
4,6,27
1,38,17
0,46,31
100,41,51
68,38,0
53,33,79
45,34,100
7,29,20
6,28,17
6,6,17
6,11,27
86,12,62
46,35,93
5,25,20
55,27,100
42,100,37
44,98,6
17,97,3
9,20,27
45,93,89
40,36,13
9,19,24
7,26,20
10,27,17
2,18,17
0,28,20
47,33,100
53,91,82
44,20,3
5,22,44
3,22,20
49,88,79
2,20,34
0,19,13
