att1,att2,att3
48,39,80
36,12,33
93,58,24
91,2,27
39,88,11
97,34,31
36,85,7
45,80,94
48,75,63
7,55,40
67,82,64
6,85,18
30,26,18
27,49,41
61,44,21
18,6,7
62,41,12
13,65,80
31,4,93
81,62,68
63,65,14
53,42,90
26,56,78
1,37,53
93,50,35
30,53,41
33,93,100
89,77,28
95,32,94
38,67,26
94,7,2
8,92,48
